<svg width="16" height="17" viewBox="0 0 16 17" fill="none" xmlns="http://www.w3.org/2000/svg">
<g clip-path="url(#clip0_456_2748)">
<g clip-path="url(#clip1_456_2748)">
<path d="M7.99998 12.2721C7.8655 12.2719 7.7345 12.2294 7.62558 12.1505L4.28158 9.74093C4.12859 9.62826 4.01521 9.47004 3.95772 9.28894C3.90023 9.10785 3.90158 8.9132 3.96158 8.73293L5.11038 5.21293C5.16186 5.05813 5.26053 4.92334 5.39253 4.8275C5.52454 4.73165 5.68325 4.67955 5.84638 4.67853C6.00865 4.67993 6.16638 4.73227 6.29729 4.82816C6.42821 4.92405 6.52569 5.05864 6.57598 5.21293L7.19678 7.13293H8.79678L9.41758 5.21293C9.46822 5.05852 9.56634 4.92405 9.69793 4.82871C9.82953 4.73338 9.98788 4.68205 10.1504 4.68205C10.3129 4.68205 10.4712 4.73338 10.6028 4.82871C10.7344 4.92405 10.8325 5.05852 10.8832 5.21293L12.032 8.72013C12.092 8.9004 12.0933 9.09505 12.0358 9.27614C11.9783 9.45724 11.865 9.61546 11.712 9.72813L8.37118 12.1505C8.26314 12.2288 8.13336 12.2713 7.99998 12.2721ZM5.25758 8.85453L7.99998 10.8417L10.736 8.85453L10.1568 7.06893L9.87838 7.92653C9.83761 8.05389 9.75797 8.16529 9.65064 8.24507C9.54331 8.32485 9.41369 8.369 9.27998 8.37133H6.71998C6.58502 8.37123 6.45354 8.32847 6.34435 8.24915C6.23515 8.16984 6.15382 8.05804 6.11198 7.92973L5.83038 7.06573L5.25758 8.85453Z" fill="#7759C2"/>
<path d="M8.00001 2.87056C7.76127 2.87056 7.52789 2.79973 7.32943 2.66702C7.13097 2.53432 6.97635 2.34572 6.88513 2.12509C6.79392 1.90446 6.77022 1.66173 6.81703 1.42763C6.86384 1.19352 6.97905 0.978568 7.14809 0.809978C7.31713 0.641389 7.53239 0.526743 7.76662 0.480556C8.00085 0.434369 8.24351 0.458717 8.4639 0.550517C8.68428 0.642317 8.87247 0.797443 9.00465 0.996255C9.13682 1.19507 9.20704 1.42863 9.20641 1.66736C9.20556 1.98677 9.07808 2.2928 8.85193 2.51835C8.62578 2.7439 8.31941 2.87057 8.00001 2.87056ZM8.00001 1.59056C7.99007 1.59055 7.98023 1.59256 7.97108 1.59646C7.96194 1.60035 7.95368 1.60606 7.9468 1.61324C7.93992 1.62042 7.93457 1.62891 7.93106 1.63821C7.92756 1.64752 7.92597 1.65743 7.92641 1.66736C7.92641 1.74736 8.07361 1.74736 8.07361 1.66736C8.07404 1.65743 8.07245 1.64752 8.06895 1.63821C8.06544 1.62891 8.06009 1.62042 8.05321 1.61324C8.04634 1.60606 8.03807 1.60035 8.02893 1.59646C8.01979 1.59256 8.00995 1.59055 8.00001 1.59056Z" fill="#171321"/>
<path d="M8.00001 16.461C7.76141 16.461 7.52816 16.3902 7.32977 16.2576C7.13138 16.1251 6.97675 15.9367 6.88544 15.7162C6.79413 15.4958 6.77024 15.2532 6.81679 15.0192C6.86334 14.7852 6.97824 14.5702 7.14696 14.4015C7.31567 14.2328 7.53063 14.1179 7.76465 14.0713C7.99867 14.0248 8.24124 14.0487 8.46168 14.14C8.68212 14.2313 8.87053 14.3859 9.0031 14.5843C9.13566 14.7827 9.20641 15.016 9.20641 15.2546C9.20641 15.5745 9.07931 15.8814 8.85306 16.1076C8.62682 16.3339 8.31997 16.461 8.00001 16.461ZM8.00001 15.181C7.98049 15.181 7.96177 15.1887 7.94797 15.2025C7.93417 15.2163 7.92641 15.235 7.92641 15.2546C7.92641 15.3378 8.07361 15.3378 8.07361 15.2546C8.07361 15.235 8.06586 15.2163 8.05205 15.2025C8.03825 15.1887 8.01953 15.181 8.00001 15.181Z" fill="#171321"/>
<path d="M14.7936 9.66732C14.555 9.66732 14.3218 9.59656 14.1234 9.464C13.925 9.33144 13.7703 9.14303 13.679 8.92259C13.5877 8.70215 13.5638 8.45958 13.6104 8.22556C13.6569 7.99154 13.7718 7.77658 13.9406 7.60786C14.1093 7.43915 14.3242 7.32425 14.5582 7.2777C14.7923 7.23115 15.0348 7.25504 15.2553 7.34635C15.4757 7.43766 15.6641 7.59229 15.7967 7.79068C15.9293 7.98907 16 8.22231 16 8.46092C16 8.78087 15.8729 9.08773 15.6467 9.31397C15.4204 9.54022 15.1136 9.66732 14.7936 9.66732ZM14.7936 8.38732C14.7741 8.38732 14.7554 8.39507 14.7416 8.40887C14.7278 8.42268 14.72 8.4414 14.72 8.46092C14.72 8.54412 14.8704 8.54412 14.8704 8.46092C14.8704 8.45098 14.8684 8.44114 14.8645 8.43199C14.8606 8.42285 14.8549 8.41459 14.8477 8.40771C14.8406 8.40083 14.8321 8.39548 14.8228 8.39197C14.8135 8.38847 14.8035 8.38689 14.7936 8.38732Z" fill="#171321"/>
<path d="M1.2064 9.66731C0.967658 9.66795 0.734099 9.59773 0.535287 9.46555C0.336475 9.33338 0.181349 9.14519 0.089549 8.9248C-0.00225144 8.70442 -0.0265992 8.46175 0.019588 8.22752C0.0657752 7.99329 0.180421 7.77804 0.34901 7.609C0.5176 7.43996 0.732554 7.32474 0.96666 7.27793C1.20077 7.23112 1.4435 7.25483 1.66412 7.34604C1.88475 7.43726 2.07335 7.59188 2.20606 7.79034C2.33876 7.9888 2.4096 8.22217 2.4096 8.46091C2.4096 8.78032 2.28293 9.08668 2.05738 9.31284C1.83183 9.53899 1.5258 9.66647 1.2064 9.66731ZM1.2064 8.38731C1.19647 8.38688 1.18655 8.38846 1.17725 8.39197C1.16794 8.39547 1.15945 8.40083 1.15227 8.4077C1.14509 8.41458 1.13939 8.42284 1.13549 8.43199C1.13159 8.44113 1.12959 8.45097 1.1296 8.46091C1.1296 8.54411 1.28 8.54411 1.28 8.46091C1.28 8.44139 1.27224 8.42267 1.25844 8.40887C1.24464 8.39507 1.22592 8.38731 1.2064 8.38731Z" fill="#171321"/>
<path d="M12.8 4.86092C12.521 4.8603 12.2507 4.76294 12.0354 4.58543C11.82 4.40793 11.6729 4.16125 11.619 3.88743C11.5651 3.61361 11.6079 3.32957 11.7399 3.08372C11.8719 2.83786 12.0851 2.64538 12.3432 2.53908C12.6012 2.43277 12.8881 2.41921 13.155 2.50071C13.4219 2.5822 13.6523 2.75372 13.807 2.98603C13.9616 3.21834 14.0309 3.49708 14.0031 3.77476C13.9753 4.05244 13.8521 4.31189 13.6544 4.50892C13.4274 4.7347 13.1202 4.86128 12.8 4.86092ZM12.8 3.58092C12.7904 3.58054 12.7807 3.58235 12.7719 3.58623C12.763 3.59011 12.7551 3.59595 12.7488 3.60332C12.737 3.61557 12.7297 3.63156 12.7284 3.64855C12.727 3.66554 12.7315 3.68249 12.7413 3.69649C12.751 3.71049 12.7653 3.72068 12.7817 3.72532C12.7981 3.72996 12.8156 3.72876 12.8312 3.72193C12.8468 3.71509 12.8596 3.70305 12.8673 3.68785C12.8751 3.67266 12.8773 3.65525 12.8736 3.6386C12.8699 3.62196 12.8605 3.6071 12.8471 3.59658C12.8337 3.58606 12.8171 3.58053 12.8 3.58092Z" fill="#171321"/>
<path d="M3.19998 14.4705C2.92077 14.4707 2.65016 14.3739 2.4343 14.1968C2.21844 14.0197 2.07069 13.7733 2.01624 13.4994C1.96179 13.2256 2.00401 12.9413 2.13571 12.6951C2.26741 12.4489 2.48043 12.256 2.73845 12.1493C2.99647 12.0426 3.28351 12.0287 3.55063 12.11C3.81775 12.1912 4.04841 12.3627 4.20328 12.595C4.35815 12.8273 4.42764 13.1062 4.39991 13.384C4.37217 13.6618 4.24892 13.9214 4.05118 14.1185C3.82497 14.3435 3.51903 14.4701 3.19998 14.4705ZM3.14238 13.2129C3.12838 13.2269 3.12051 13.2459 3.12051 13.2657C3.12051 13.2855 3.12838 13.3045 3.14238 13.3185C3.15638 13.3325 3.17538 13.3404 3.19518 13.3404C3.21498 13.3404 3.23398 13.3325 3.24798 13.3185L3.14238 13.2129ZM3.19678 13.1905C3.18666 13.1903 3.1766 13.1922 3.16724 13.1961C3.15788 13.1999 3.14942 13.2057 3.14238 13.2129L3.24798 13.3185C3.26148 13.3043 3.26901 13.2854 3.26901 13.2657C3.26901 13.2461 3.26148 13.2272 3.24798 13.2129C3.24204 13.206 3.23469 13.2004 3.22641 13.1965C3.21813 13.1927 3.20912 13.1906 3.19998 13.1905H3.19678Z" fill="#171321"/>
<path d="M12.8 14.4705C12.521 14.4699 12.2507 14.3726 12.0354 14.1951C11.82 14.0175 11.6729 13.7709 11.619 13.4971C11.5651 13.2232 11.6079 12.9392 11.7399 12.6933C11.8719 12.4475 12.0851 12.255 12.3432 12.1487C12.6012 12.0424 12.8881 12.0288 13.155 12.1103C13.4219 12.1918 13.6523 12.3633 13.807 12.5956C13.9616 12.828 14.0309 13.1067 14.0031 13.3844C13.9753 13.6621 13.8521 13.9215 13.6544 14.1185C13.4274 14.3443 13.1202 14.4709 12.8 14.4705ZM12.8 13.1905C12.7904 13.1902 12.7807 13.192 12.7719 13.1959C12.763 13.1997 12.7551 13.2056 12.7488 13.2129C12.737 13.2252 12.7297 13.2412 12.7284 13.2582C12.727 13.2752 12.7315 13.2921 12.7413 13.3061C12.751 13.3201 12.7653 13.3303 12.7817 13.3349C12.7981 13.3396 12.8156 13.3384 12.8312 13.3315C12.8468 13.3247 12.8596 13.3127 12.8673 13.2975C12.8751 13.2823 12.8773 13.2649 12.8736 13.2482C12.8699 13.2316 12.8605 13.2167 12.8471 13.2062C12.8337 13.1957 12.8171 13.1901 12.8 13.1905Z" fill="#171321"/>
<path d="M3.19998 4.86092C2.92077 4.86104 2.65016 4.7643 2.4343 4.58721C2.21844 4.41012 2.07069 4.16363 2.01624 3.88978C1.96179 3.61593 2.00401 3.33167 2.13571 3.08548C2.26741 2.83928 2.48043 2.64638 2.73845 2.53968C2.99647 2.43298 3.28351 2.41909 3.55063 2.50036C3.81775 2.58163 4.04841 2.75304 4.20328 2.98536C4.35815 3.21769 4.42764 3.49654 4.39991 3.77436C4.37217 4.05219 4.24892 4.3118 4.05118 4.50892C3.82478 4.73363 3.51896 4.86009 3.19998 4.86092ZM3.19998 3.58092C3.18209 3.5802 3.16452 3.58576 3.15029 3.59663C3.13606 3.60749 3.12608 3.62299 3.12206 3.64043C3.11805 3.65788 3.12025 3.67618 3.1283 3.69217C3.13634 3.70816 3.14972 3.72084 3.16612 3.72802C3.18252 3.7352 3.20092 3.73642 3.21812 3.73147C3.23533 3.72652 3.25027 3.71572 3.26035 3.70093C3.27044 3.68615 3.27504 3.6683 3.27337 3.65047C3.27169 3.63265 3.26385 3.61597 3.25118 3.60332C3.2449 3.59596 3.23702 3.59012 3.22815 3.58624C3.21929 3.58236 3.20965 3.58054 3.19998 3.58092Z" fill="#171321"/>
</g>
</g>
<defs>
<clipPath id="clip0_456_2748">
<rect width="16" height="16" fill="white" transform="translate(0 0.460938)"/>
</clipPath>
<clipPath id="clip1_456_2748">
<rect width="16" height="16" fill="white" transform="translate(0 0.460938)"/>
</clipPath>
</defs>
</svg>
