<svg width="24" height="22" viewBox="0 0 24 22" fill="none" xmlns="http://www.w3.org/2000/svg">
<path d="M13.8388 2.55774L11.973 4.4596L10.0712 2.59373C7.73737 0.301929 3.98767 0.337929 1.69587 2.67173C-0.595937 5.00553 -0.559937 8.75522 1.77386 11.047L12.135 21.2162C12.405 20.9462 22.7181 10.4351 22.3041 10.855C24.5959 8.52124 24.5599 4.77155 22.2261 2.47974C19.8923 0.187937 16.1426 0.223937 13.8508 2.55774H13.8388Z" fill="#A989F5"/>
</svg>
