<svg width="32" height="32" viewBox="0 0 32 32" fill="none" xmlns="http://www.w3.org/2000/svg">
<g clip-path="url(#clip0_752_2742)">
<path d="M3.26516 5.35606C3.54992 14.2124 2.45248 17.6999 4.71136 22.3968C6.31113 25.7211 11.7503 29.8389 15.9961 31.3555" stroke="#171321" stroke-width="1.27982" stroke-linecap="round" stroke-linejoin="round"/>
<path d="M5.34424 5.47766C7.35603 5.44219 9.33917 4.99459 11.1712 4.16252C13.0032 3.33045 14.6451 2.13157 15.9955 0.639954C17.5816 2.3923 19.5671 3.73604 21.7834 4.55707C23.9998 5.37811 26.3815 5.6522 28.7265 5.35607C28.4417 14.2124 29.5391 17.6999 27.2803 22.3968C25.6805 25.7211 20.2413 29.8389 15.9955 31.3555" stroke="#171321" stroke-width="1.27982" stroke-linecap="round" stroke-linejoin="round"/>
<path d="M21.7574 12.9101L20.3049 11.4575C20.2248 11.3769 20.1296 11.3128 20.0248 11.2691C19.9199 11.2254 19.8074 11.2029 19.6937 11.2029C19.5801 11.2029 19.4676 11.2254 19.3627 11.2691C19.2578 11.3128 19.1626 11.3769 19.0826 11.4575L14.6257 15.9017L12.9299 14.2027C12.7675 14.0414 12.5478 13.9508 12.3188 13.9508C12.0898 13.9508 11.8701 14.0414 11.7077 14.2027L10.2551 15.6585C10.0939 15.8204 10.0034 16.0396 10.0034 16.2681C10.0034 16.4965 10.0939 16.7157 10.2551 16.8776L13.6466 20.2691C13.775 20.3975 13.9274 20.4993 14.0951 20.5688C14.2628 20.6382 14.4425 20.674 14.6241 20.674C14.8056 20.674 14.9854 20.6382 15.1531 20.5688C15.3208 20.4993 15.4732 20.3975 15.6015 20.2691L21.7574 14.1292C21.838 14.0494 21.902 13.9545 21.9457 13.8499C21.9893 13.7453 22.0118 13.633 22.0118 13.5196C22.0118 13.4063 21.9893 13.294 21.9457 13.1894C21.902 13.0848 21.838 12.9899 21.7574 12.9101V12.9101Z" stroke="#171321" stroke-width="1.27982" stroke-linecap="round" stroke-linejoin="round"/>
</g>
<defs>
<clipPath id="clip0_752_2742">
<rect width="31.9954" height="31.9954" fill="white"/>
</clipPath>
</defs>
</svg>
