<svg width="24" height="24" viewBox="0 0 24 24" fill="none" xmlns="http://www.w3.org/2000/svg">
<path d="M4.83839 6.86646H0.494385L4.83839 2.52246V6.86646Z" fill="white"/>
<path d="M17.6736 4.32006L19.0464 2.90406C19.6272 2.30646 20.6352 2.34246 21.2976 2.98566L23.0736 4.70886C23.736 5.35206 23.7936 6.35766 23.2224 6.95766L21.84 8.37126" fill="#FC6D26"/>
<path d="M17.6042 4.3409L10.075 11.8884L14.4146 16.2174L21.9437 8.66988L17.6042 4.3409Z" fill="#FCA326"/>
<path d="M13.9968 8.06408C13.8695 8.06408 13.7474 8.01351 13.6574 7.92349C13.5674 7.83347 13.5168 7.71138 13.5168 7.58408V3.00248H4.8384C4.71109 3.00248 4.589 2.95191 4.49899 2.86189C4.40897 2.77187 4.3584 2.64978 4.3584 2.52248C4.3584 2.39518 4.40897 2.27309 4.49899 2.18307C4.589 2.09305 4.71109 2.04248 4.8384 2.04248H13.9968C14.1241 2.04248 14.2462 2.09305 14.3362 2.18307C14.4262 2.27309 14.4768 2.39518 14.4768 2.52248V7.58408C14.4768 7.71138 14.4262 7.83347 14.3362 7.92349C14.2462 8.01351 14.1241 8.06408 13.9968 8.06408Z" fill="#171321"/>
<path d="M13.9968 21.9576H0.491993C0.364689 21.9576 0.2426 21.907 0.152582 21.817C0.0625647 21.727 0.0119934 21.6049 0.0119934 21.4776V8.68801C0.0119934 8.5607 0.0625647 8.43861 0.152582 8.3486C0.2426 8.25858 0.364689 8.20801 0.491993 8.20801C0.619297 8.20801 0.741387 8.25858 0.831405 8.3486C0.921422 8.43861 0.971993 8.5607 0.971993 8.68801V20.9976H13.5168V17.6112C13.5168 17.4839 13.5674 17.3618 13.6574 17.2718C13.7474 17.1818 13.8695 17.1312 13.9968 17.1312C14.1241 17.1312 14.2462 17.1818 14.3362 17.2718C14.4262 17.3618 14.4768 17.4839 14.4768 17.6112V21.4776C14.4768 21.6049 14.4262 21.727 14.3362 21.817C14.2462 21.907 14.1241 21.9576 13.9968 21.9576Z" fill="#171321"/>
<path d="M4.83839 7.34638H0.491992C0.397351 7.34598 0.304939 7.31761 0.226374 7.26484C0.147808 7.21207 0.0865962 7.13725 0.0504322 7.04979C0.0142682 6.96233 0.00476643 6.86613 0.0231214 6.77329C0.0414764 6.68044 0.0868688 6.5951 0.153592 6.52798L4.49759 2.18398C4.56459 2.11643 4.65014 2.07031 4.7434 2.05149C4.83665 2.03266 4.93339 2.04197 5.02135 2.07823C5.1093 2.11449 5.1845 2.17607 5.23738 2.25515C5.29027 2.33423 5.31847 2.42724 5.31839 2.52238V6.86638C5.31839 6.99368 5.26782 7.11577 5.1778 7.20579C5.08779 7.2958 4.9657 7.34638 4.83839 7.34638ZM1.65119 6.38638H4.35839V3.68158L1.65119 6.38638Z" fill="#171321"/>
<path d="M9.22321 17.3279C9.15386 17.3286 9.08518 17.3143 9.0219 17.286C8.95861 17.2576 8.90222 17.2159 8.8566 17.1637C8.81098 17.1114 8.77722 17.0499 8.75765 16.9834C8.73807 16.9169 8.73315 16.8469 8.74321 16.7783L9.46321 11.9423C9.47874 11.8403 9.52671 11.7461 9.60001 11.6735L18.5616 2.71429C18.9663 2.31199 19.5138 2.08618 20.0844 2.08618C20.655 2.08618 21.2025 2.31199 21.6072 2.71429L23.3568 4.46389C23.7591 4.8686 23.9849 5.41605 23.9849 5.9867C23.9849 6.55734 23.7591 7.10479 23.3568 7.5095L14.4 16.4687C14.3274 16.542 14.2332 16.59 14.1312 16.6055L9.29761 17.3255L9.22321 17.3279ZM10.392 12.2399L9.79201 16.2767L13.8288 15.6791L22.6776 6.8303C22.8975 6.60598 23.0206 6.3044 23.0206 5.9903C23.0206 5.67619 22.8975 5.37461 22.6776 5.15029L20.928 3.39349C20.7037 3.17362 20.4021 3.05047 20.088 3.05047C19.7739 3.05047 19.4723 3.17362 19.248 3.39349L10.392 12.2399Z" fill="#171321"/>
<path d="M12.1056 14.52C12.0416 14.521 11.9781 14.5092 11.9188 14.4853C11.8594 14.4614 11.8054 14.4259 11.76 14.3808C11.7154 14.3362 11.68 14.2833 11.6558 14.225C11.6317 14.1667 11.6192 14.1043 11.6192 14.0412C11.6192 13.9781 11.6317 13.9157 11.6558 13.8574C11.68 13.7991 11.7154 13.7462 11.76 13.7016L19.0728 6.31679C19.1626 6.22609 19.2847 6.17475 19.4123 6.17408C19.5399 6.1734 19.6625 6.22345 19.7532 6.31319C19.8439 6.40294 19.8952 6.52505 19.8959 6.65265C19.8966 6.78025 19.8466 6.90289 19.7568 6.99359L12.4464 14.376C12.402 14.4213 12.3489 14.4574 12.2904 14.4821C12.2319 14.5069 12.1691 14.5197 12.1056 14.52Z" fill="#171321"/>
<path d="M14.0568 16.6104C13.9934 16.6105 13.9307 16.598 13.8722 16.5737C13.8137 16.5494 13.7606 16.5137 13.716 16.4688L9.59999 12.3528C9.50992 12.2628 9.45932 12.1406 9.45932 12.0132C9.45932 11.8859 9.50992 11.7637 9.59999 11.6736C9.69005 11.5836 9.81221 11.533 9.93959 11.533C10.067 11.533 10.1891 11.5836 10.2792 11.6736L14.4 15.7896C14.4675 15.8566 14.5136 15.9422 14.5325 16.0354C14.5513 16.1287 14.542 16.2254 14.5057 16.3134C14.4695 16.4013 14.4079 16.4765 14.3288 16.5294C14.2497 16.5823 14.1567 16.6105 14.0616 16.6104H14.0568Z" fill="#171321"/>
<path d="M21.7272 8.94005C21.6001 8.93952 21.4784 8.88859 21.3888 8.79845L17.28 4.68245C17.2317 4.63888 17.1928 4.58595 17.1656 4.52689C17.1385 4.46782 17.1236 4.40385 17.1218 4.33885C17.1201 4.27385 17.1316 4.20918 17.1557 4.14876C17.1797 4.08834 17.2158 4.03344 17.2617 3.98738C17.3076 3.94132 17.3623 3.90507 17.4227 3.88082C17.483 3.85657 17.5476 3.84483 17.6126 3.84632C17.6776 3.8478 17.7417 3.86248 17.8008 3.88945C17.86 3.91643 17.913 3.95515 17.9568 4.00325L22.0656 8.11925C22.1331 8.18625 22.1793 8.2718 22.1981 8.36506C22.2169 8.45831 22.2076 8.55506 22.1713 8.64301C22.1351 8.73096 22.0735 8.80616 21.9944 8.85905C21.9153 8.91193 21.8223 8.94013 21.7272 8.94005Z" fill="#171321"/>
<path d="M10.464 17.1025C10.3419 17.1026 10.2243 17.0563 10.1352 16.9729L9.11521 16.0128C9.06655 15.9705 9.02691 15.9188 8.99867 15.8609C8.97043 15.8029 8.95416 15.7398 8.95083 15.6754C8.94751 15.611 8.95719 15.5466 8.97931 15.486C9.00143 15.4254 9.03553 15.3699 9.07957 15.3228C9.12361 15.2757 9.17669 15.238 9.23565 15.2118C9.2946 15.1857 9.35822 15.1717 9.4227 15.1707C9.48718 15.1697 9.5512 15.1817 9.61094 15.206C9.67068 15.2303 9.72492 15.2663 9.77041 15.312L10.7928 16.272C10.8631 16.3379 10.912 16.4234 10.9331 16.5174C10.9542 16.6114 10.9465 16.7096 10.911 16.7992C10.8756 16.8887 10.814 16.9656 10.7342 17.0197C10.6545 17.0738 10.5604 17.1026 10.464 17.1025Z" fill="#171321"/>
<path d="M7.2456 9.78471H3.816C3.68869 9.78471 3.5666 9.73413 3.47659 9.64412C3.38657 9.5541 3.336 9.43201 3.336 9.30471C3.336 9.1774 3.38657 9.05531 3.47659 8.9653C3.5666 8.87528 3.68869 8.82471 3.816 8.82471H7.2456C7.3729 8.82471 7.49499 8.87528 7.58501 8.9653C7.67503 9.05531 7.7256 9.1774 7.7256 9.30471C7.7256 9.43201 7.67503 9.5541 7.58501 9.64412C7.49499 9.73413 7.3729 9.78471 7.2456 9.78471Z" fill="#171321"/>
<path d="M9.9408 12.3001H3.816C3.68869 12.3001 3.5666 12.2495 3.47659 12.1595C3.38657 12.0695 3.336 11.9474 3.336 11.8201C3.336 11.6928 3.38657 11.5707 3.47659 11.4807C3.5666 11.3907 3.68869 11.3401 3.816 11.3401H9.9408C10.0681 11.3401 10.1902 11.3907 10.2802 11.4807C10.3702 11.5707 10.4208 11.6928 10.4208 11.8201C10.4208 11.9474 10.3702 12.0695 10.2802 12.1595C10.1902 12.2495 10.0681 12.3001 9.9408 12.3001Z" fill="#171321"/>
<path d="M9.4176 14.8128H3.816C3.68869 14.8128 3.5666 14.7622 3.47659 14.6722C3.38657 14.5822 3.336 14.4601 3.336 14.3328C3.336 14.2055 3.38657 14.0834 3.47659 13.9934C3.5666 13.9034 3.68869 13.8528 3.816 13.8528H9.4176C9.5449 13.8528 9.66699 13.9034 9.75701 13.9934C9.84703 14.0834 9.8976 14.2055 9.8976 14.3328C9.8976 14.4601 9.84703 14.5822 9.75701 14.6722C9.66699 14.7622 9.5449 14.8128 9.4176 14.8128Z" fill="#171321"/>
<path d="M6.7368 17.3279H3.816C3.68869 17.3279 3.5666 17.2773 3.47659 17.1873C3.38657 17.0973 3.336 16.9752 3.336 16.8479C3.336 16.7206 3.38657 16.5985 3.47659 16.5085C3.5666 16.4185 3.68869 16.3679 3.816 16.3679H6.7368C6.8641 16.3679 6.98619 16.4185 7.07621 16.5085C7.16623 16.5985 7.2168 16.7206 7.2168 16.8479C7.2168 16.9752 7.16623 17.0973 7.07621 17.1873C6.98619 17.2773 6.8641 17.3279 6.7368 17.3279Z" fill="#171321"/>
</svg>
