<svg width="96" height="96" viewBox="0 0 96 96" fill="none" xmlns="http://www.w3.org/2000/svg">
<g clip-path="url(#clip0_289_5041)">
<path d="M48 79.3728L62.064 68.9952C62.2543 68.854 62.3955 68.6568 62.4678 68.4312C62.5401 68.2056 62.5399 67.963 62.4672 67.7376L57.6 52.5888C57.5629 52.4781 57.492 52.3818 57.3973 52.3136C57.3025 52.2454 57.1887 52.2087 57.072 52.2087C56.9552 52.2087 56.8415 52.2454 56.7467 52.3136C56.652 52.3818 56.581 52.4781 56.544 52.5888L53.3472 62.6496H42.6528L39.4272 52.5888C39.3901 52.4781 39.3192 52.3818 39.2245 52.3136C39.1297 52.2454 39.0159 52.2087 38.8992 52.2087C38.7824 52.2087 38.6687 52.2454 38.5739 52.3136C38.4792 52.3818 38.4082 52.4781 38.3712 52.5888L33.5712 67.7376C33.4985 67.963 33.4982 68.2056 33.5706 68.4312C33.6429 68.6568 33.7841 68.854 33.9744 68.9952L48 79.3728Z" fill="#FC6D26"/>
<path d="M48 81.2928C47.5922 81.2914 47.1954 81.1603 46.8672 80.9184L32.7936 70.5408C32.2867 70.1662 31.9078 69.6443 31.7085 69.0464C31.5092 68.4485 31.4993 67.8037 31.68 67.2L36.48 52.0512C36.646 51.552 36.9637 51.1172 37.3888 50.8074C37.8139 50.4976 38.3252 50.3283 38.8512 50.3231C39.3816 50.3046 39.9039 50.457 40.3411 50.7577C40.7784 51.0584 41.1075 51.4917 41.28 51.9936L44.0736 60.7296H51.9648L54.72 52.0031C54.878 51.5047 55.1898 51.0691 55.6105 50.7587C56.0313 50.4483 56.5395 50.2791 57.0624 50.2752C57.5848 50.2742 58.0941 50.4392 58.5168 50.7463C58.9395 51.0534 59.2538 51.4868 59.4144 51.984L64.32 67.2C64.5136 67.8084 64.5122 68.4622 64.316 69.0698C64.1198 69.6774 63.7385 70.2085 63.2256 70.5888L49.1424 80.9088C48.8147 81.1598 48.4128 81.2949 48 81.2928ZM35.52 67.7856L48 76.9824L60.48 67.7856L57.1104 57.2256L55.1904 63.2256C55.0665 63.6123 54.8232 63.9498 54.4955 64.1896C54.1678 64.4293 53.7725 64.559 53.3664 64.56H42.6528C42.2467 64.559 41.8514 64.4293 41.5236 64.1896C41.1959 63.9498 40.9526 63.6123 40.8288 63.2256L38.9088 57.216L35.52 67.7856Z" fill="#380D75"/>
<path d="M78.288 70.0032H71.3568C70.8476 70.0032 70.3592 69.8009 69.9992 69.4408C69.6391 69.0807 69.4368 68.5924 69.4368 68.0832C69.4368 67.5739 69.6391 67.0856 69.9992 66.7255C70.3592 66.3654 70.8476 66.1632 71.3568 66.1632H78.288C80.1372 66.2119 81.9775 65.8897 83.7002 65.2157C85.4229 64.5416 86.9931 63.5294 88.3183 62.2387C89.6434 60.9479 90.6966 59.4049 91.4158 57.7005C92.1349 55.9962 92.5054 54.165 92.5054 52.3152C92.5054 50.4653 92.1349 48.6342 91.4158 46.9298C90.6966 45.2255 89.6434 43.6824 88.3183 42.3917C86.9931 41.101 85.4229 40.0887 83.7002 39.4147C81.9775 38.7406 80.1372 38.4185 78.288 38.4672C77.2409 38.4727 76.1976 38.5951 75.1776 38.832C74.8765 38.9008 74.5633 38.896 74.2644 38.8179C73.9656 38.7399 73.69 38.5909 73.4611 38.3836C73.2321 38.1763 73.0566 37.9168 72.9493 37.6272C72.842 37.3376 72.8061 37.0264 72.8448 36.72C72.9579 35.838 73.0156 34.9499 73.0176 34.0608C73.0144 29.1978 71.291 24.4927 68.1525 20.7782C65.014 17.0636 60.6626 14.579 55.8684 13.7641C51.0742 12.9492 46.1463 13.8564 41.9567 16.3253C37.767 18.7942 34.5858 22.6656 32.976 27.2544C32.8905 27.497 32.7572 27.72 32.5839 27.91C32.4106 28.1001 32.2008 28.2534 31.9671 28.3609C31.7334 28.4683 31.4805 28.5277 31.2234 28.5356C30.9663 28.5434 30.7102 28.4994 30.4704 28.4064C27.7933 27.3629 24.919 26.9225 22.0523 27.1166C19.1855 27.3107 16.3968 28.1344 13.8847 29.5291C11.3727 30.9238 9.19897 32.8552 7.51845 35.1858C5.83793 37.5164 4.69191 40.1889 4.16201 43.0129C3.6321 45.8369 3.73134 48.743 4.45265 51.5243C5.17396 54.3056 6.4996 56.8936 8.33519 59.1042C10.1708 61.3147 12.4712 63.0933 15.0725 64.3134C17.6739 65.5336 20.5123 66.1651 23.3856 66.1632H25.92C26.4292 66.1632 26.9176 66.3654 27.2776 66.7255C27.6377 67.0856 27.84 67.5739 27.84 68.0832C27.84 68.5924 27.6377 69.0807 27.2776 69.4408C26.9176 69.8009 26.4292 70.0032 25.92 70.0032H23.3856C17.1834 70.0032 11.2351 67.5393 6.84948 63.1537C2.46383 58.768 0 52.8198 0 46.6176C0 40.4153 2.46383 34.4671 6.84948 30.0814C11.2351 25.6958 17.1834 23.232 23.3856 23.232C25.6607 23.2184 27.9253 23.5419 30.1056 24.192C32.3798 19.0835 36.3376 14.9097 41.3181 12.3675C46.2987 9.82526 52.0005 9.06843 57.4718 10.2233C62.9431 11.3783 67.8526 14.375 71.3807 18.7134C74.9089 23.0517 76.8421 28.4689 76.8576 34.0608C76.8576 34.2624 76.8576 34.4832 76.8576 34.6944C77.3472 34.6944 77.8176 34.6272 78.2976 34.6272C80.6551 34.5722 82.9998 34.9891 85.1938 35.8534C87.3879 36.7176 89.3871 38.0117 91.0738 39.6596C92.7606 41.3075 94.1009 43.276 95.016 45.4493C95.9311 47.6227 96.4025 49.957 96.4025 52.3152C96.4025 54.6733 95.9311 57.0076 95.016 59.181C94.1009 61.3543 92.7606 63.3228 91.0738 64.9707C89.3871 66.6186 87.3879 67.9128 85.1938 68.777C82.9998 69.6412 80.6551 70.0581 78.2976 70.0032H78.288Z" fill="#380D75"/>
</g>
<defs>
<clipPath id="clip0_289_5041">
<rect width="96" height="96" fill="white"/>
</clipPath>
</defs>
</svg>
