<svg width="40" height="41" viewBox="0 0 40 41" fill="none" xmlns="http://www.w3.org/2000/svg">
<g clip-path="url(#clip0_173_781)">
<path d="M20 25.7388L25.692 21.6028C25.7691 21.5478 25.8265 21.4696 25.8561 21.3797C25.8856 21.2897 25.8855 21.1927 25.856 21.1028L23.896 15.0668C23.8819 15.021 23.8535 14.9811 23.815 14.9527C23.7764 14.9243 23.7298 14.9089 23.682 14.9089C23.6342 14.9089 23.5876 14.9243 23.5491 14.9527C23.5105 14.9811 23.4821 15.021 23.468 15.0668L22.168 19.0668H17.836L16.532 15.0668C16.5179 15.021 16.4895 14.9811 16.4509 14.9527C16.4124 14.9243 16.3658 14.9089 16.318 14.9089C16.2702 14.9089 16.2236 14.9243 16.185 14.9527C16.1465 14.9811 16.1181 15.021 16.104 15.0668L14.144 21.1028C14.1145 21.1927 14.1144 21.2897 14.1439 21.3797C14.1735 21.4696 14.2309 21.5478 14.308 21.6028L20 25.7388Z" fill="#FC6D26"/>
<path d="M2.148 27.9347C1.98778 27.9349 1.8312 27.8869 1.69855 27.7971C1.5659 27.7072 1.46328 27.5796 1.404 27.4307C-0.037372 23.8013 -0.38467 19.8293 0.404957 16.0048C1.19458 12.1803 3.08659 8.67067 5.84752 5.90888C8.60846 3.14709 12.1175 1.25401 15.9418 0.463201C19.766 -0.327604 23.7381 0.0184702 27.368 1.45872C27.5463 1.54707 27.6853 1.69869 27.7578 1.88398C27.8303 2.06928 27.8312 2.27495 27.7602 2.46084C27.6892 2.64674 27.5516 2.79952 27.374 2.88936C27.1965 2.9792 26.9918 2.99965 26.8 2.94672C23.4574 1.6118 19.7967 1.28652 16.2712 2.01117C12.7456 2.73582 9.50998 4.47856 6.96491 7.02363C4.41984 9.5687 2.67709 12.8043 1.95245 16.3299C1.2278 19.8555 1.55308 23.5162 2.888 26.8587C2.92697 26.9564 2.94629 27.0608 2.94486 27.166C2.94343 27.2712 2.92128 27.375 2.87967 27.4716C2.83805 27.5682 2.7778 27.6557 2.70236 27.729C2.62692 27.8022 2.53776 27.8599 2.44 27.8987C2.34554 27.9278 2.24669 27.94 2.148 27.9347Z" fill="#171321"/>
<path d="M20 40.0589C16.9654 40.0713 13.9685 39.3871 11.24 38.0589C11.049 37.966 10.9028 37.8011 10.8334 37.6005C10.764 37.3998 10.7772 37.1798 10.87 36.9889C10.9628 36.7979 11.1277 36.6516 11.3284 36.5823C11.529 36.5129 11.749 36.526 11.94 36.6189C14.4499 37.8425 17.2077 38.4721 20 38.4589C23.0701 38.4597 26.0915 37.6924 28.7892 36.2267C31.4868 34.7611 33.7748 32.6438 35.4448 30.0676C37.1148 27.4915 38.1136 24.5384 38.3503 21.4775C38.587 18.4166 38.0541 15.3451 36.8 12.5429C36.713 12.3492 36.7065 12.129 36.7819 11.9306C36.8573 11.7322 37.0084 11.5718 37.202 11.4849C37.3956 11.3979 37.6158 11.3913 37.8143 11.4667C38.0127 11.5421 38.173 11.6932 38.26 11.8869C39.6236 14.9328 40.2033 18.2716 39.9463 21.5989C39.6894 24.9263 38.6038 28.1365 36.7887 30.9369C34.9735 33.7374 32.4865 36.0391 29.5541 37.6324C26.6217 39.2257 23.3373 40.0598 20 40.0589Z" fill="#171321"/>
<path d="M6.8 20.8588C6.58783 20.8588 6.38434 20.7745 6.23431 20.6245C6.08429 20.4744 6 20.2709 6 20.0588C6.00532 17.2945 6.82885 14.5936 8.3668 12.2966C9.90475 9.99968 12.0883 8.2094 14.6421 7.1515C17.196 6.09359 20.0059 5.8154 22.7176 6.352C25.4293 6.8886 27.9215 8.21596 29.88 10.1668C30.3681 10.6585 30.8212 11.1838 31.236 11.7388C31.3628 11.909 31.4167 12.1227 31.386 12.3327C31.3552 12.5428 31.2423 12.732 31.072 12.8588C30.9017 12.9855 30.6881 13.0395 30.478 13.0087C30.268 12.978 30.0788 12.865 29.952 12.6948C28.8914 11.2649 27.5353 10.0802 25.976 9.22121C24.4167 8.36219 22.6907 7.84902 20.9153 7.71657C19.14 7.58412 17.3569 7.83551 15.6874 8.45363C14.0179 9.07176 12.501 10.0421 11.24 11.2988C10.084 12.4455 9.16697 13.8103 8.54215 15.314C7.91733 16.8177 7.59709 18.4304 7.6 20.0588C7.6 20.2709 7.51571 20.4744 7.36569 20.6245C7.21566 20.7745 7.01217 20.8588 6.8 20.8588Z" fill="#171321"/>
<path d="M20 34.0588C18.1619 34.059 16.3419 33.6962 14.6443 32.9913C12.9468 32.2863 11.4052 31.253 10.108 29.9508C9.61106 29.4505 9.14992 28.9158 8.728 28.3508C8.65006 28.2689 8.59035 28.1715 8.5528 28.0649C8.51526 27.9583 8.50073 27.8449 8.51018 27.7323C8.51964 27.6196 8.55285 27.5103 8.60763 27.4114C8.66242 27.3125 8.73753 27.2264 8.82803 27.1587C8.91852 27.0909 9.02234 27.0431 9.13264 27.0185C9.24295 26.9938 9.35723 26.9927 9.46796 27.0154C9.57869 27.0381 9.68336 27.084 9.77507 27.1501C9.86677 27.2162 9.94343 27.3009 10 27.3988C10.3781 27.9018 10.7925 28.3764 11.24 28.8188C12.9741 30.5497 15.1821 31.7281 17.5853 32.2052C19.9886 32.6823 22.4793 32.4368 24.7431 31.4996C27.0069 30.5624 28.9423 28.9756 30.3051 26.9394C31.6678 24.9032 32.3968 22.5089 32.4 20.0588C32.4 19.8466 32.4843 19.6431 32.6343 19.4931C32.7843 19.3431 32.9878 19.2588 33.2 19.2588C33.4122 19.2588 33.6157 19.3431 33.7657 19.4931C33.9157 19.6431 34 19.8466 34 20.0588C34.0037 21.8983 33.6441 23.7205 32.9418 25.4207C32.2396 27.1209 31.2085 28.6658 29.9077 29.9665C28.607 31.2673 27.0622 32.2984 25.3619 33.0006C23.6617 33.7029 21.8395 34.0625 20 34.0588Z" fill="#171321"/>
<path d="M30.604 13.0188H27.092C26.8798 13.0188 26.6763 12.9345 26.5263 12.7845C26.3763 12.6345 26.292 12.431 26.292 12.2188C26.292 12.0067 26.3763 11.8032 26.5263 11.6531C26.6763 11.5031 26.8798 11.4188 27.092 11.4188H29.804V8.70283C29.804 8.49066 29.8883 8.28718 30.0383 8.13715C30.1883 7.98712 30.3918 7.90283 30.604 7.90283C30.8162 7.90283 31.0197 7.98712 31.1697 8.13715C31.3197 8.28718 31.404 8.49066 31.404 8.70283V12.2188C31.404 12.431 31.3197 12.6345 31.1697 12.7845C31.0197 12.9345 30.8162 13.0188 30.604 13.0188Z" fill="#171321"/>
<path d="M9.372 32.1787C9.15983 32.1787 8.95634 32.0945 8.80631 31.9444C8.65628 31.7944 8.572 31.5909 8.572 31.3787V27.8627C8.572 27.6506 8.65628 27.4471 8.80631 27.2971C8.95634 27.147 9.15983 27.0627 9.372 27.0627H12.888C13.1002 27.0627 13.3037 27.147 13.4537 27.2971C13.6037 27.4471 13.688 27.6506 13.688 27.8627C13.688 28.0749 13.6037 28.2784 13.4537 28.4284C13.3037 28.5785 13.1002 28.6627 12.888 28.6627H10.172V31.3787C10.172 31.5909 10.0877 31.7944 9.93768 31.9444C9.78765 32.0945 9.58417 32.1787 9.372 32.1787Z" fill="#171321"/>
<path d="M19.8287 25.9803L19.8256 25.978L14.1297 21.8461C14.1297 21.8461 14.1296 21.8461 14.1296 21.846C14.0024 21.7536 13.9077 21.6233 13.8592 21.4738C13.8106 21.3243 13.8107 21.1631 13.8594 21.0136L13.8596 21.0132L15.8196 14.9772L15.8196 14.977C15.8538 14.8716 15.9206 14.7797 16.0103 14.7146C16.0998 14.6497 16.2075 14.6147 16.318 14.6147C16.4279 14.6156 16.5347 14.6509 16.6233 14.7158C16.7121 14.7807 16.7782 14.872 16.8123 14.9766C16.8123 14.9767 16.8124 14.9769 16.8124 14.977L17.924 18.4319L18.0356 18.7787H18.4H21.6H21.9632L22.0755 18.4334L23.1986 14.9801C23.1987 14.9797 23.1989 14.9793 23.199 14.9789C23.2337 14.8749 23.3003 14.7843 23.3893 14.7201C23.4785 14.6556 23.5859 14.6209 23.696 14.6209C23.8061 14.6209 23.9135 14.6556 24.0028 14.7201C24.0916 14.7842 24.1581 14.8746 24.1929 14.9785L26.1402 21.0123L26.141 21.0149C26.1903 21.1648 26.1906 21.3264 26.1421 21.4765C26.0935 21.6265 25.9984 21.7573 25.8707 21.8498L25.8705 21.85L20.1785 25.978L20.1784 25.978L20.1754 25.9803C20.1249 26.0175 20.064 26.0379 20.0013 26.0387C19.9391 26.0376 19.8788 26.0172 19.8287 25.9803ZM14.5085 20.9522L14.3962 21.2979L14.6903 21.5114L19.7063 25.1514L20 25.3645L20.2937 25.1514L25.3097 21.5114L25.6037 21.2981L25.4916 20.9525L24.1596 16.8445L23.6848 15.3801L23.2085 16.8441L22.4526 19.1677C22.4526 19.1678 22.4526 19.1678 22.4526 19.1678C22.433 19.228 22.3949 19.2803 22.3437 19.3175C22.2925 19.3547 22.2309 19.3747 22.1676 19.3747H17.8364C17.7731 19.3747 17.7115 19.3547 17.6603 19.3175C17.6091 19.2803 17.571 19.228 17.5514 19.1679C17.5514 19.1679 17.5514 19.1678 17.5514 19.1677L16.7956 16.8403L16.3201 15.3763L15.8445 16.8402L14.5085 20.9522Z" stroke="black"/>
</g>
<defs>
<clipPath id="clip0_173_781">
<rect width="40" height="40" fill="white" transform="translate(0 0.0588379)"/>
</clipPath>
</defs>
</svg>
