<svg width="32" height="32" viewBox="0 0 32 32" fill="none" xmlns="http://www.w3.org/2000/svg">
<g clip-path="url(#clip0_1335_391)">
<path d="M18.7521 28.608C13.2481 28.608 8.76807 24.128 8.76807 18.624C8.76807 13.12 13.2481 8.64001 18.7521 8.64001C24.2561 8.64001 28.7361 13.12 28.7361 18.624C28.6721 24.128 24.2561 28.608 18.7521 28.608ZM18.7521 11.264C14.6561 11.264 11.3281 14.592 11.3281 18.688C11.3281 22.784 14.6561 26.112 18.7521 26.112C22.8481 26.112 26.1761 22.784 26.1761 18.688C26.1121 14.592 22.8481 11.264 18.7521 11.264Z" fill="#7D2BD9"/>
<path d="M28.096 32C27.968 32 27.84 32 27.776 32C26.624 31.872 25.536 31.296 24.896 30.336L24.192 29.312C23.808 28.736 23.936 27.904 24.512 27.52C25.088 27.136 25.92 27.264 26.304 27.84L27.008 28.864C27.264 29.184 27.584 29.44 28.032 29.44C28.416 29.504 28.864 29.312 29.12 29.056C29.44 28.736 29.568 28.352 29.504 27.968C29.44 27.584 29.248 27.2 28.928 26.944L25.6 24.64C25.024 24.256 24.896 23.424 25.28 22.848C25.664 22.272 26.496 22.144 27.072 22.528L30.4 24.832C31.36 25.472 32 26.56 32.064 27.712C32.128 28.864 31.744 30.016 30.912 30.848C30.144 31.616 29.12 32 28.096 32Z" fill="#7D2BD9"/>
<path d="M18.1761 11.264C17.4721 11.264 16.8961 10.688 16.8961 9.984V2.56H8.06406C7.36006 2.56 6.78406 1.984 6.78406 1.28C6.78406 0.576 7.36006 0 8.06406 0H18.1761C18.8801 0 19.4561 0.576 19.4561 1.28V9.984C19.4561 10.688 18.8801 11.264 18.1761 11.264Z" fill="#7D2BD9"/>
<path d="M12.48 26.752H1.28C0.576 26.752 0 26.176 0 25.472V12.096C0 11.392 0.576 10.816 1.28 10.816C1.984 10.816 2.56 11.392 2.56 12.096V24.192H12.48C13.184 24.192 13.76 24.768 13.76 25.472C13.76 26.176 13.248 26.752 12.48 26.752Z" fill="#7D2BD9"/>
<path d="M8.06393 9.34398H1.27993C0.76793 9.34398 0.31993 9.02397 0.12793 8.57597C-0.0640697 8.12797 0.0639303 7.55197 0.38393 7.16797L7.16793 0.383975C7.55193 -2.54456e-05 8.06393 -0.0640255 8.57593 0.127975C9.02393 0.319975 9.34393 0.767975 9.34393 1.27997V8.06398C9.34393 8.76797 8.76793 9.34398 8.06393 9.34398ZM4.35193 6.78398H6.78393V4.35197L4.35193 6.78398Z" fill="#7D2BD9"/>
<path d="M22.144 17.664H16C15.296 17.664 14.72 17.088 14.72 16.384C14.72 15.68 15.296 15.104 16 15.104H22.144C22.848 15.104 23.424 15.68 23.424 16.384C23.424 17.088 22.848 17.664 22.144 17.664Z" fill="#7D2BD9"/>
<path d="M18.752 21.888H16C15.296 21.888 14.72 21.312 14.72 20.608C14.72 19.904 15.296 19.328 16 19.328H18.752C19.456 19.328 20.032 19.904 20.032 20.608C20.032 21.312 19.456 21.888 18.752 21.888Z" fill="#7D2BD9"/>
</g>
<defs>
<clipPath id="clip0_1335_391">
<rect width="32" height="32" fill="white"/>
</clipPath>
</defs>
</svg>
