<svg width="32" height="32" viewBox="0 0 32 32" fill="none" xmlns="http://www.w3.org/2000/svg">
<g clip-path="url(#clip0_1740_6853)">
<path d="M1.71483 21.6577C0.607499 18.8702 0.340643 15.8195 0.947204 12.8821C1.55376 9.94466 3.00719 7.24915 5.12808 5.12826C7.24897 3.00737 9.94448 1.55395 12.8819 0.947387C15.8193 0.340826 18.8701 0.607682 21.6576 1.71502" stroke="#171321" stroke-width="1.27982" stroke-linecap="round" stroke-linejoin="round"/>
<path d="M30.0209 9.72345C31.31 12.602 31.6816 15.8075 31.0852 18.9046C30.4887 22.0017 28.9532 24.84 26.6873 27.0339C24.4214 29.2278 21.535 30.6708 18.4203 31.167C15.3056 31.6631 12.1137 31.1883 9.27832 29.8069" stroke="#171321" stroke-width="1.27982" stroke-linecap="round" stroke-linejoin="round"/>
<path d="M5.43945 15.9977C5.44255 13.9117 6.06347 11.8734 7.22386 10.14C8.38425 8.40651 10.0321 7.05562 11.9595 6.25777C13.8869 5.45991 16.0074 5.25085 18.0535 5.65695C20.0996 6.06306 21.9795 7.06614 23.4561 8.53961C23.8273 8.90842 24.1696 9.30527 24.4799 9.72664" stroke="#171321" stroke-width="1.27982" stroke-linecap="round" stroke-linejoin="round"/>
<path d="M26.5548 15.9977C26.552 18.2204 25.8478 20.3855 24.5426 22.1847C23.2374 23.9838 21.3977 25.3251 19.2856 26.0175C17.1735 26.71 14.8968 26.7182 12.7797 26.0411C10.6627 25.364 8.81333 24.036 7.49512 22.2464" stroke="#171321" stroke-width="1.27982" stroke-linecap="round" stroke-linejoin="round"/>
<path d="M15.9966 21.6546C19.1208 21.6546 21.6534 19.1219 21.6534 15.9978C21.6534 12.8736 19.1208 10.341 15.9966 10.341C12.8725 10.341 10.3398 12.8736 10.3398 15.9978C10.3398 19.1219 12.8725 21.6546 15.9966 21.6546Z" stroke="#171321" stroke-width="1.27982" stroke-linecap="round" stroke-linejoin="round"/>
<path d="M13.8379 16.2472L15.1168 17.5293L18.1649 14.4811" stroke="#171321" stroke-width="1.27982" stroke-linecap="round" stroke-linejoin="round"/>
<path d="M24.4841 6.91422V9.7316H21.6699" stroke="#171321" stroke-width="1.27982" stroke-linecap="round" stroke-linejoin="round"/>
<path d="M7.49512 25.0574V22.24H10.3125" stroke="#171321" stroke-width="1.27982" stroke-linecap="round" stroke-linejoin="round"/>
</g>
<defs>
<clipPath id="clip0_1740_6853">
<rect width="31.9954" height="31.9954" fill="white"/>
</clipPath>
</defs>
</svg>
